Routes\User\login: <test> mamao time: 2021-01-09T19:40:35+01:00
Routes\User\login: <test> mamao time: 2021-01-09T19:40:38+01:00
Routes\User\login: <test> mamao time: 2021-01-09T19:41:53+01:00
Routes\User\login: <test> mamao time: 2021-01-09T19:41:56+01:00
Routes\User\login: <Invalid Status name proviced> mamao time: 2021-01-09T21:43:02+01:00
Routes\User\login: <INVALID STATUS NAME PROVICED> mamao time: 2021-01-09T21:44:18+01:00
Routes\User\login: <INVALID STATUS> mamao time: 2021-01-09T21:46:02+01:00
Routes\User\login: <INFO> klk time: 2021-01-09T21:52:36+01:00
Routes\User\login: <INVALID STATUS CODE> 1 time: 2021-01-09T22:07:32+01:00
Routes\User\login: <SUCCESS> klk time: 2021-01-09T22:08:09+01:00
